{
  "page": 1,
  "total_results": 10000,
  "total_pages": 500,
  "results": [
    {
      "original_name": "Lucifer",
      "genre_ids": [80, 10765],
      "name": "Lucifer",
      "popularity": 963.864,
      "origin_country": ["US"],
      "vote_count": 4389,
      "first_air_date": "2016-01-25",
      "backdrop_path": "/ta5oblpMlEcIPIS2YGcq9XEkWK2.jpg",
      "original_language": "en",
      "id": 63174,
      "vote_average": 8.5,
      "overview": "Bored and unhappy as the Lord of Hell, Lucifer Morningstar abandoned his throne and retired to Los Angeles, where he has teamed up with LAPD detective Chloe Decker to take down criminals. But the longer he's away from the underworld, the greater the threat that the worst of humanity could escape.",
      "poster_path": "/4EYPN5mVIhKLfxGruy7Dy41dTVn.jpg"
    },
    {
      "original_name": "Lovecraft Country",
      "genre_ids": [18, 9648, 10765],
      "name": "Lovecraft Country",
      "popularity": 310.264,
      "origin_country": ["US"],
      "vote_count": 89,
      "first_air_date": "2020-08-16",
      "backdrop_path": "/qx7qy2GJOc7yGY6WENyBU3OVv7A.jpg",
      "original_language": "en",
      "id": 82816,
      "vote_average": 7.4,
      "overview": "The anthology horror series follows 25-year-old Atticus Black, who joins up with his friend Letitia and his Uncle George to embark on a road trip across 1950s Jim Crow America to find his missing father. They must survive and overcome both the racist terrors of white America and the malevolent spirits that could be ripped from a Lovecraft paperback.",
      "poster_path": "/fz7bdjxPColvEWCGr5Kiclzc86d.jpg"
    },
    {
      "original_name": "The 100",
      "genre_ids": [18, 10759, 10765],
      "name": "The 100",
      "popularity": 285.814,
      "origin_country": ["US"],
      "vote_count": 4054,
      "first_air_date": "2014-03-19",
      "backdrop_path": "/hTExot1sfn7dHZjGrk0Aiwpntxt.jpg",
      "original_language": "en",
      "id": 48866,
      "vote_average": 7.7,
      "overview": "100 years in the future, when the Earth has been abandoned due to radioactivity, the last surviving humans live on an ark orbiting the planet — but the ark won't last forever. So the repressive regime picks 100 expendable juvenile delinquents to send down to Earth to see if the planet is still habitable.",
      "poster_path": "/wcaDIAG1QdXQLRaj4vC1EFdBT2.jpg"
    },
    {
      "original_name": "Supernatural",
      "genre_ids": [18, 9648, 10765],
      "name": "Supernatural",
      "popularity": 284.495,
      "origin_country": ["US"],
      "vote_count": 3650,
      "first_air_date": "2005-09-13",
      "backdrop_path": "/nVRyd8hlg0ZLxBn9RaI7mUMQLnz.jpg",
      "original_language": "en",
      "id": 1622,
      "vote_average": 8,
      "overview": "When they were boys, Sam and Dean Winchester lost their mother to a mysterious and demonic supernatural force. Subsequently, their father raised them to be soldiers. He taught them about the paranormal evil that lives in the dark corners and on the back roads of America ... and he taught them how to kill it. Now, the Winchester brothers crisscross the country in their '67 Chevy Impala, battling every kind of supernatural threat they encounter along the way. ",
      "poster_path": "/KoYWXbnYuS3b0GyQPkbuexlVK9.jpg"
    },
    {
      "original_name": "The Simpsons",
      "id": 456,
      "name": "The Simpsons",
      "popularity": 272.966,
      "vote_count": 4421,
      "vote_average": 7.6,
      "first_air_date": "1989-12-16",
      "poster_path": "/qcr9bBY6MVeLzriKCmJOv1562uY.jpg",
      "genre_ids": [16, 35],
      "original_language": "en",
      "backdrop_path": "/adZ9ldSlkGfLfsHNbh37ZThCcgU.jpg",
      "overview": "Set in Springfield, the average American town, the show focuses on the antics and everyday adventures of the Simpson family; Homer, Marge, Bart, Lisa and Maggie, as well as a virtual cast of thousands. Since the beginning, the series has been a pop culture icon, attracting hundreds of celebrities to guest star. The show has also made name for itself in its fearless satirical take on politics, media and American life in general.",
      "origin_country": ["US"]
    },
    {
      "original_name": "Law & Order: Special Victims Unit",
      "genre_ids": [80, 18],
      "name": "Law & Order: Special Victims Unit",
      "popularity": 260.849,
      "origin_country": ["US"],
      "vote_count": 1581,
      "first_air_date": "1999-09-20",
      "backdrop_path": "/cD9PxbrdWYgL7MUpD9eOYuiSe2P.jpg",
      "original_language": "en",
      "id": 2734,
      "vote_average": 7.4,
      "overview": "In the criminal justice system, sexually-based offenses are considered especially heinous. In New York City, the dedicated detectives who investigate these vicious felonies are members of an elite squad known as the Special Victims Unit. These are their stories.",
      "poster_path": "/6t6r1VGQTTQecN4V0sZeqsmdU9g.jpg"
    },
    {
      "original_name": "The Flash",
      "genre_ids": [18, 10765],
      "name": "The Flash",
      "popularity": 259.646,
      "origin_country": ["US"],
      "vote_count": 5458,
      "first_air_date": "2014-10-07",
      "backdrop_path": "/jC1KqsFx8ZyqJyQa2Ohi7xgL7XC.jpg",
      "original_language": "en",
      "id": 60735,
      "vote_average": 7.5,
      "overview": "After a particle accelerator causes a freak storm, CSI Investigator Barry Allen is struck by lightning and falls into a coma. Months later he awakens with the power of super speed, granting him the ability to move through Central City like an unseen guardian angel. Though initially excited by his newfound powers, Barry is shocked to discover he is not the only \"meta-human\" who was created in the wake of the accelerator explosion -- and not everyone is using their new powers for good. Barry partners with S.T.A.R. Labs and dedicates his life to protect the innocent. For now, only a few close friends and associates know that Barry is literally the fastest man alive, but it won't be long before the world learns what Barry Allen has become...The Flash.",
      "poster_path": "/wHa6KOJAoNTFLFtp7wguUJKSnju.jpg"
    },
    {
      "original_name": "Grey's Anatomy",
      "genre_ids": [18],
      "name": "Grey's Anatomy",
      "popularity": 244.162,
      "origin_country": ["US"],
      "vote_count": 3367,
      "first_air_date": "2005-03-27",
      "backdrop_path": "/edmk8xjGBsYVIf4QtLY9WMaMcXZ.jpg",
      "original_language": "en",
      "id": 1416,
      "vote_average": 7.9,
      "overview": "Follows the personal and professional lives of a group of doctors at Seattle’s Grey Sloan Memorial Hospital.",
      "poster_path": "/jnsvc7gCKocXnrTXF6p03cICTWb.jpg"
    },
    {
      "original_name": "The Umbrella Academy",
      "genre_ids": [35, 18, 10759, 10765],
      "name": "The Umbrella Academy",
      "popularity": 240.291,
      "origin_country": ["US"],
      "vote_count": 1423,
      "first_air_date": "2019-02-15",
      "backdrop_path": "/qJxzjUjCpTPvDHldNnlbRC4OqEh.jpg",
      "original_language": "en",
      "id": 75006,
      "vote_average": 8.6,
      "overview": "A dysfunctional family of superheroes comes together to solve the mystery of their father's death, the threat of the apocalypse and more.",
      "poster_path": "/scZlQQYnDVlnpxFTxaIv2g0BWnL.jpg"
    },
    {
      "original_name": "The Good Doctor",
      "id": 71712,
      "name": "The Good Doctor",
      "popularity": 211.629,
      "vote_count": 4377,
      "vote_average": 8.6,
      "first_air_date": "2017-09-25",
      "poster_path": "/53P8oHo9cfOsgb1cLxBi4pFY0ja.jpg",
      "genre_ids": [18],
      "original_language": "en",
      "backdrop_path": "/mZjZgY6ObiKtVuKVDrnS9VnuNlE.jpg",
      "overview": "A young surgeon with Savant syndrome is recruited into the surgical unit of a prestigious hospital. The question will arise: can a person who doesn't have the ability to relate to people actually save their lives?",
      "origin_country": ["US"]
    },
    {
      "original_name": "Game of Thrones",
      "genre_ids": [18, 10765],
      "name": "Game of Thrones",
      "popularity": 201.652,
      "origin_country": ["US"],
      "vote_count": 10018,
      "first_air_date": "2011-04-17",
      "backdrop_path": "/suopoADq0k8YZr4dQXcU6pToj6s.jpg",
      "original_language": "en",
      "id": 1399,
      "vote_average": 8.3,
      "overview": "Seven noble families fight for control of the mythical land of Westeros. Friction between the houses leads to full-scale war. All while a very ancient evil awakens in the farthest north. Amidst the war, a neglected military order of misfits, the Night's Watch, is all that stands between the realms of men and icy horrors beyond.",
      "poster_path": "/u3bZgnGQ9T01sWNhyveQz0wH0Hl.jpg"
    },
    {
      "original_name": "Dark",
      "genre_ids": [80, 18, 9648, 10765],
      "name": "Dark",
      "popularity": 194.481,
      "origin_country": ["DE"],
      "vote_count": 3209,
      "first_air_date": "2017-12-01",
      "backdrop_path": "/3lBDg3i6nn5R2NKFCJ6oKyUo2j5.jpg",
      "original_language": "de",
      "id": 70523,
      "vote_average": 8.5,
      "overview": "A missing child causes four families to help each other for answers. What they could not imagine is that this mystery would be connected to innumerable other secrets of the small town.",
      "poster_path": "/apbrbWs8M9lyOpJYU5WXrpFbk1Z.jpg"
    },
    {
      "original_name": "Bones",
      "genre_ids": [80, 18],
      "name": "Bones",
      "popularity": 194.209,
      "origin_country": ["US"],
      "vote_count": 1228,
      "first_air_date": "2005-09-13",
      "backdrop_path": "/e9n87p3Ax67spq3eUgLB6rjIEow.jpg",
      "original_language": "en",
      "id": 1911,
      "vote_average": 8,
      "overview": "Dr. Temperance Brennan and her colleagues at the Jeffersonian's Medico-Legal Lab assist Special Agent Seeley Booth with murder investigations when the remains are so badly decomposed, burned or destroyed that the standard identification methods are useless.",
      "poster_path": "/1bwF1daWnsEYYjbHXiEMdS587fR.jpg"
    },
    {
      "original_name": "Riverdale",
      "genre_ids": [18, 9648],
      "name": "Riverdale",
      "popularity": 187.537,
      "origin_country": ["US"],
      "vote_count": 4841,
      "first_air_date": "2017-01-26",
      "backdrop_path": "/9hvhGtcsGhQY58pukw8w55UEUbL.jpg",
      "original_language": "en",
      "id": 69050,
      "vote_average": 8.6,
      "overview": "Set in the present, the series offers a bold, subversive take on Archie, Betty, Veronica and their friends, exploring the surreality of small-town life, the darkness and weirdness bubbling beneath Riverdale’s wholesome facade.",
      "poster_path": "/4X7o1ssOEvp4BFLim1AZmPNcYbU.jpg"
    },
    {
      "original_name": "NCIS",
      "genre_ids": [80, 18, 10759],
      "name": "NCIS",
      "popularity": 185.977,
      "origin_country": ["US"],
      "vote_count": 1081,
      "first_air_date": "2003-09-23",
      "backdrop_path": "/4VuCtYBvZGq6Rk3gloigwlsTefE.jpg",
      "original_language": "en",
      "id": 4614,
      "vote_average": 7.1,
      "overview": "From murder and espionage to terrorism and stolen submarines, a team of special agents investigates any crime that has a shred of evidence connected to Navy and Marine Corps personnel, regardless of rank or position.",
      "poster_path": "/fi8EvaWtL5CvoielOjjVvTr7ux3.jpg"
    },
    {
      "original_name": "Rick and Morty",
      "genre_ids": [16, 35, 10759, 10765],
      "name": "Rick and Morty",
      "popularity": 184.291,
      "origin_country": ["US"],
      "vote_count": 3197,
      "first_air_date": "2013-12-02",
      "backdrop_path": "/eV3XnUul4UfIivz3kxgeIozeo50.jpg",
      "original_language": "en",
      "id": 60625,
      "vote_average": 8.7,
      "overview": "Rick is a mentally-unbalanced but scientifically-gifted old man who has recently reconnected with his family. He spends most of his time involving his young grandson Morty in dangerous, outlandish adventures throughout space and alternate universes. Compounded with Morty's already unstable family life, these events cause Morty much distress at home and school.",
      "poster_path": "/8kOWDBK6XlPUzckuHDo3wwVRFwt.jpg"
    },
    {
      "original_name": "Vikings",
      "genre_ids": [18, 10759],
      "name": "Vikings",
      "popularity": 178.474,
      "origin_country": ["CA"],
      "vote_count": 3023,
      "first_air_date": "2013-03-03",
      "backdrop_path": "/aq2yEMgRQBPfRkrO0Repo2qhUAT.jpg",
      "original_language": "en",
      "id": 44217,
      "vote_average": 7.8,
      "overview": "The adventures of Ragnar Lothbrok, the greatest hero of his age. The series tells the sagas of Ragnar's band of Viking brothers and his family, as he rises to become King of the Viking tribes. As well as being a fearless warrior, Ragnar embodies the Norse traditions of devotion to the gods. Legend has it that he was a direct descendant of Odin, the god of war and warriors.",
      "poster_path": "/ff1zhqvwfS5HvRNcA5UFrH0PA2q.jpg"
    },
    {
      "original_name": "The Boys",
      "genre_ids": [10759, 10765],
      "name": "The Boys",
      "popularity": 175.23,
      "origin_country": ["US"],
      "vote_count": 942,
      "first_air_date": "2019-07-25",
      "backdrop_path": "/bI37vIHSH7o4IVkq37P8cfxQGMx.jpg",
      "original_language": "en",
      "id": 76479,
      "vote_average": 8.3,
      "overview": "A group of vigilantes known informally as “The Boys” set out to take down corrupt superheroes with no more than blue-collar grit and a willingness to fight dirty.",
      "poster_path": "/e7oHnWqqdC9JRxKCJFfpUaKX66U.jpg"
    },
    {
      "original_name": "Criminal Minds",
      "genre_ids": [80, 18, 9648],
      "name": "Criminal Minds",
      "popularity": 168.93,
      "origin_country": ["US"],
      "vote_count": 1503,
      "first_air_date": "2005-09-22",
      "backdrop_path": "/nWw20ipGipwdOyLTkFfX2Uz4Grp.jpg",
      "original_language": "en",
      "id": 4057,
      "vote_average": 8,
      "overview": "An elite team of FBI profilers analyze the country's most twisted criminal minds, anticipating their next moves before they strike again. The Behavioral Analysis Unit's most experienced agent is David Rossi, a founding member of the BAU who returns to help the team solve new cases.",
      "poster_path": "/7TCwgX7oQKxcWYEhSPRmaHe6ULN.jpg"
    },
    {
      "original_name": "The Walking Dead",
      "genre_ids": [18, 10759, 10765],
      "name": "The Walking Dead",
      "popularity": 165.069,
      "origin_country": ["US"],
      "vote_count": 7405,
      "first_air_date": "2010-10-31",
      "backdrop_path": "/wXXaPMgrv96NkH8KD1TMdS2d7iq.jpg",
      "original_language": "en",
      "id": 1402,
      "vote_average": 7.8,
      "overview": "Sheriff's deputy Rick Grimes awakens from a coma to find a post-apocalyptic world dominated by flesh-eating zombies. He sets out to find his family and encounters many other survivors along the way.",
      "poster_path": "/5l10EjdgPxu8Gbl5Ww6SWkVQH6T.jpg"
    }
  ]
}
